<?xml version="1.0" standalone="no"?>
<svg xmlns="http://www.w3.org/2000/svg" height="1000" width="1000" xmlns:xlink="http://www.w3.org/1999/xlink">
<metadata>IcoFont Icons</metadata>
<title>bill</title>
<glyph glyph-name="bill" unicode="&#xeeba;" horiz-adv-x="1000" />
<path d="M809.1 272.5h-628.2c-6.299999999999983 32.80000000000001-29.69999999999999 60.80000000000001-62.29999999999998 71.89999999999998-1.7999999999999972 0.7000000000000455-3.799999999999997 1.3000000000000114-5.799999999999997 1.8000000000000114v110.10000000000002c16.799999999999997-26.400000000000034 46.500000000000014-44.19999999999999 80.00000000000001-44.19999999999999 52.29999999999998 0 94.69999999999999 42.69999999999999 94.69999999999999 94.69999999999999 0 52.30000000000001-42.400000000000006 94.69999999999999-94.69999999999999 94.69999999999999-33.5 0-63.20000000000002-17.600000000000023-80.00000000000001-44.200000000000045v110.10000000000002c29.89999999999999 8.300000000000068 54.3 31.100000000000023 64.60000000000001 60.30000000000007h292.9c-86.89999999999998-17.40000000000009-153.69999999999993-111-153.89999999999998-223.40000000000003 0.4000000000000341-124.60000000000002 82.20000000000005-226.3 182.70000000000005-226.5 100.69999999999993 0.19999999999998863 182.69999999999993 101.89999999999998 183 226.5-0.20000000000004547 112.40000000000003-66.80000000000007 205.99999999999994-153.70000000000005 223.40000000000003h284.4c9.600000000000023-28.40000000000009 32.40000000000009-50.5 61.700000000000045-59.60000000000002 4.2000000000000455-1.1000000000000227 8.5-2.2000000000000455 12.700000000000045-2.8999999999999773v-316.80000000000007c-39.30000000000007-6.199999999999989-70.80000000000007-36.799999999999955-78.10000000000002-75.89999999999998z m77.69999999999993 234.3c0 52.30000000000001-42.39999999999998 94.69999999999999-94.69999999999993 94.69999999999999-52.30000000000007 0-94.70000000000005-42.39999999999998-94.70000000000005-94.69999999999999 0-52 42.39999999999998-94.69999999999999 94.70000000000005-94.69999999999999 52.19999999999993 0 94.69999999999993 42.69999999999999 94.69999999999993 94.69999999999999z m-147.69999999999993 0c0 29.30000000000001 23.899999999999977 53.19999999999999 52.89999999999998 53.19999999999999 29.299999999999955 0 52.89999999999998-23.899999999999977 53.200000000000045-53.19999999999999-0.20000000000004547-29.30000000000001-23.90000000000009-52.900000000000034-53.200000000000045-52.900000000000034-29 0-52.89999999999998 23.600000000000023-52.89999999999998 52.900000000000034z m-493.20000000000005 0c2.842170943040401e-14-29.30000000000001-23.899999999999977-52.900000000000034-53.19999999999999-52.900000000000034s-52.89999999999998 23.700000000000045-52.89999999999998 52.900000000000034c0 29.30000000000001 23.69999999999999 53.19999999999999 53.19999999999999 53.19999999999999 29 0 52.900000000000006-23.899999999999977 52.900000000000006-53.19999999999999z m-183.39999999999998-284.6v556h875v-556h-875z m866.3 485.40000000000003l-18.09999999999991-1.3000000000000682-3.300000000000068-0.1999999999999318-0.6999999999999318-0.20000000000004547-1.8000000000000682-0.1999999999999318h-2.699999999999932c-9.800000000000068 0-19.200000000000045 2.5-27.5 7.599999999999909-8.700000000000045 5.400000000000091-15.900000000000091 13.200000000000045-20.300000000000068 22.600000000000023l-0.6999999999999318 1.1000000000000227-0.40000000000009095 1.2999999999999545c-1.7999999999999545 4.2000000000000455-3.099999999999909 8.700000000000045-3.7999999999999545 13.200000000000045l-0.5 3.5-1.7999999999999545 14.5h-704.3000000000001l-1.9999999999999716-14.299999999999955-0.20000000000001705-1.8000000000000682-0.19999999999998863-2c-2.1999999999999886-15.399999999999977-10.900000000000006-29-24.099999999999994-37.5-7.800000000000011-4.899999999999977-16.5-7.600000000000023-25.5-8.299999999999955h-4l-15.600000000000009-1.1000000000000227v-395.4l15.600000000000009-0.9000000000000341 4-0.39999999999997726c28.099999999999994-1.3000000000000114 50-24.600000000000023 50-52.70000000000002v-1.5999999999999943c0-0.19999999999998863-0.20000000000001705-0.9000000000000057-0.20000000000001705-1.8000000000000114v-3.5999999999999943l-0.6999999999999886-17.19999999999999h709.9l-0.6999999999999318 17.19999999999999v4.200000000000017l-0.20000000000004547 1.799999999999983c0 27.00000000000003 19.700000000000045 49.599999999999994 45.299999999999955 53.400000000000006 2.900000000000091 0.19999999999998863 5.600000000000023 0.39999999999997726 7.800000000000068 0.39999999999997726 1.2999999999999545 0 2.5 0 4-0.19999999999998863l4.5-0.19999999999998863 18.100000000000023-1.6000000000000227 0.09999999999990905 401.70000000000005z m-331.29999999999995-70.80000000000007c27.700000000000045-35.09999999999991 42.89999999999998-82.19999999999993 42.89999999999998-132.49999999999994s-15.199999999999932-97.40000000000003-42.89999999999998-132.5c-26.799999999999955-33.69999999999999-61.700000000000045-52.5-98.30000000000001-52.5-36.89999999999998 0-71.69999999999999 18.80000000000001-98.30000000000001 52.5-27.69999999999999 35.19999999999999-42.89999999999998 82.30000000000001-42.89999999999998 132.5 0 50.30000000000001 15.199999999999989 97.40000000000003 42.89999999999998 132.49999999999994 26.600000000000023 33.700000000000045 61.400000000000034 52.5 98.30000000000001 52.5 36.69999999999999 0 71.50000000000006-18.799999999999955 98.30000000000001-52.5z m-45.60000000000002-61.89999999999998c-8.299999999999955 10.100000000000023-20.600000000000023 17-36.39999999999998 20.600000000000023v31.100000000000023c-3.8000000000000114 1.1000000000000227-7.600000000000023 1.7999999999999545-11.600000000000023 1.7999999999999545-3.7999999999999545 0-7.7999999999999545-0.6999999999999318-11.599999999999966-1.7999999999999545v-28.399999999999977h-2.1999999999999886c-5.800000000000011 0-11.200000000000045-0.20000000000004547-15.900000000000034-0.40000000000009095-4.699999999999989-0.39999999999997726-8.899999999999977-0.8999999999999773-13.199999999999989-1.7999999999999545-4.199999999999989-0.8999999999999773-8.5-1.7999999999999545-12.5-3.1000000000000227s-8.5-2.699999999999932-12.699999999999989-4.5c0.39999999999997726-5.399999999999977 1.3000000000000114-10.5 2.8999999999999773-15.899999999999977 1.3000000000000114-5.100000000000023 3.1000000000000227-10.700000000000045 4.900000000000034-16.299999999999955 7.599999999999966 2.8999999999999773 14.699999999999989 5.099999999999909 21.19999999999999 6.2999999999999545 6.699999999999989 1.1000000000000227 13.800000000000011 1.7999999999999545 21.19999999999999 1.7999999999999545 11.199999999999989 0 19.899999999999977-2 26.100000000000023-5.7999999999999545 6.2999999999999545-3.7999999999999545 9.199999999999932-10.100000000000023 9.199999999999932-18.5 0-4.5-0.6999999999999318-8-2.5-10.700000000000045s-3.7999999999999545-4.899999999999977-6.5-6.899999999999977c-2.499999999999943-1.7999999999999545-5.399999999999977-3.1000000000000227-8.699999999999932-4.5-3.1000000000000227-1.1000000000000227-6.300000000000011-2.699999999999932-9.400000000000034-4l-14.099999999999966-6.2999999999999545c-6-2.5-11.400000000000034-4.900000000000034-16.100000000000023-7.800000000000011-4.899999999999977-2.6999999999999886-8.899999999999977-6-12.5-9.800000000000011-3.6000000000000227-3.8000000000000114-6.300000000000011-8.5-8-13.600000000000023-2-5.099999999999966-2.8999999999999773-11.599999999999966-2.8999999999999773-19 0-16.099999999999966 4.699999999999989-28.799999999999955 13.599999999999966-38.19999999999999 9.199999999999989-9.199999999999989 21.900000000000034-14.699999999999989 38-16.80000000000001v-28.399999999999977c3.6000000000000227-1.1000000000000227 7.600000000000023-1.8000000000000114 11.400000000000034-1.8000000000000114s7.7999999999999545 0.6999999999999886 11.799999999999955 1.8000000000000114v27.5c7.100000000000023 0.6999999999999886 14.100000000000023 1.6000000000000227 20.800000000000068 3.1000000000000227 6.5 1.599999999999966 13.399999999999977 3.599999999999966 20.799999999999955 6-1.1000000000000227 10.299999999999955-4 20.599999999999966-8.5 30.599999999999966l-8.299999999999955-3.3000000000000114c-2.7000000000000455-0.8999999999999773-5.800000000000068-1.7999999999999545-8.700000000000045-2.5-3.3999999999999773-0.8999999999999773-6.7000000000000455-1.2999999999999545-10.700000000000045-1.7999999999999545-4-0.4000000000000341-8.5-0.7000000000000455-13.399999999999977-0.7000000000000455-3.099999999999966 0-6 0.20000000000004547-9.199999999999989 0.7000000000000455s-6 1.2999999999999545-8.5 2.6999999999999886c-2.5 1.599999999999966-4.699999999999989 3.599999999999966-6.300000000000011 6-1.599999999999966 2.6999999999999886-2.1999999999999886 6-2.1999999999999886 10.099999999999966 0 3.6000000000000227 0.4000000000000341 6.7000000000000455 1.8000000000000114 9.200000000000045 1.1000000000000227 2.5 2.8999999999999773 4.699999999999989 5.100000000000023 6.2999999999999545 2 1.8000000000000114 4.5 3.400000000000034 7.099999999999966 4.5 2.6999999999999886 1.3000000000000114 5.400000000000034 2.5 8 3.6000000000000227l16.099999999999966 6.699999999999989c6.7000000000000455 2.6999999999999886 13 5.600000000000023 18.5 8.5 5.600000000000023 2.900000000000034 10.300000000000068 6.300000000000011 14.100000000000023 10.300000000000011 3.800000000000068 4 6.7000000000000455 8.899999999999977 8.899999999999977 14.700000000000045 2.2000000000000455 5.7999999999999545 3.1000000000000227 13.199999999999932 3.1000000000000227 21.899999999999977 0.3000000000000682 14.5-3.699999999999932 26.799999999999955-12 36.799999999999955z"/>
</svg>