<?xml version="1.0" standalone="no"?>
<svg xmlns="http://www.w3.org/2000/svg" height="1000" width="1000" xmlns:xlink="http://www.w3.org/1999/xlink">
<metadata>IcoFont Icons</metadata>
<title>cash-on-delivery-alt</title>
<glyph glyph-name="cash-on-delivery-alt" unicode="&#xecc8;" horiz-adv-x="1000" />
<path d="M846.7 154.4h-693.4000000000001c-84.29999999999995 0-153.29999999999995 68.9-153.29999999999995 153.20000000000002v384.69999999999993c0 84.30000000000007 69 153.30000000000007 153.3 153.30000000000007h693.4000000000001c84.29999999999995 0 153.29999999999995-69 153.29999999999995-153.30000000000007v-384.69999999999993c0-84.30000000000001-69-153.20000000000002-153.29999999999995-153.20000000000002z m-585.1 206.6c2.1999999999999886-2.6999999999999886 3.3999999999999773-2.6000000000000227 5.899999999999977-0.5 19.100000000000023 16.19999999999999 38.19999999999999 32.30000000000001 57.5 48.19999999999999 3.5 2.900000000000034 2.8999999999999773 4.800000000000011 0.39999999999997726 7.800000000000011-32.69999999999999 38.80000000000001-65.19999999999999 77.69999999999999-97.69999999999999 116.60000000000002-1.8999999999999773 2.199999999999932-2.8999999999999773 2.6000000000000227-5.299999999999983 0.6000000000000227-16.30000000000001-13.900000000000091-32.80000000000001-27.700000000000045-49.30000000000001-41.50000000000006l0.5999999999999943-1.099999999999966c8.200000000000017 2.5 16.30000000000001 5.199999999999989 24.600000000000023 7.599999999999966 9.699999999999989 2.8000000000000114 19.299999999999983-1.8000000000000114 23-10.800000000000011 3.5999999999999943-8.799999999999955 0.09999999999999432-18.299999999999955-8.600000000000023-23.399999999999977-6.599999999999994-3.8999999999999773-13.199999999999989-7.899999999999977-20.19999999999999-11.199999999999989-4.699999999999989-2.3000000000000114-4.900000000000006-4-1.5999999999999943-7.900000000000034 15.199999999999989-17.799999999999955 30.099999999999994-35.799999999999955 45.099999999999994-53.69999999999999l25.600000000000023-30.69999999999999z m-152.70000000000002 113.69999999999999c0 3.3000000000000114-0.5 5.300000000000011-4.5 5.100000000000023-3-0.19999999999998863-5-0.10000000000002274-5.400000000000006-4.300000000000011-1.5999999999999943-20.899999999999977-3.5999999999999943-41.69999999999999-5.700000000000003-62.60000000000002-0.3999999999999915-3.6999999999999886 0.29999999999999716-5.199999999999989 4.1000000000000085-4.7999999999999545 1.7999999999999972 0.19999999999998863 3.799999999999997 0.19999999999998863 5.599999999999994 0 4.5-0.6000000000000227 6.099999999999994 1 5.900000000000006 5.699999999999989-0.30000000000001137 10.300000000000011-0.10000000000000853 20.5-0.10000000000000853 30.80000000000001 0 10.099999999999966-0.09999999999999432 20.099999999999966 0.10000000000000853 30.099999999999966z m38.900000000000006-5.699999999999989c-4.400000000000006-5.5-9.5-6.899999999999977-16-4.5-4.300000000000011 1.6000000000000227-8.900000000000006 2.5-14.200000000000017 4v-49.30000000000001c0-2.099999999999966-0.19999999999998863-3.8999999999999773 3-4.399999999999977 13.099999999999994-2.1999999999999886 25.700000000000017-6.600000000000023 38.400000000000006-10.400000000000034 13.900000000000006-4.199999999999989 27.30000000000001-0.39999999999997726 40.80000000000001 1.8000000000000114 3.3999999999999773 0.5 6.799999999999983 1.400000000000034 11.599999999999994 2.3000000000000114-8.5 10.199999999999989-16.5 19.69999999999999-24.5 29.19999999999999-2.200000000000017 2.5-5.300000000000011 1.3000000000000114-8 1.3000000000000114-3.8000000000000114 0.10000000000002274-7 0.8999999999999773-8.200000000000017 5-1.299999999999983 4.399999999999977 1 6.899999999999977 4.700000000000017 8.899999999999977l31.799999999999983 17.80000000000001c5.700000000000017 3.1000000000000227 8.400000000000006 7.400000000000034 6.600000000000023 13.699999999999989-1.700000000000017 5.800000000000011-7.300000000000011 8.5-14.300000000000011 6.300000000000011-13.599999999999994-4.099999999999966-27-8.699999999999989-40.5-13.199999999999989-4.699999999999989-1.6999999999999886-8.300000000000011-4.800000000000011-11.199999999999989-8.5z m131.2 128.89999999999998c-13.800000000000011-0.1999999999999318-27.599999999999994-0.5-41.400000000000006-0.10000000000002274-13.5 0.40000000000009095-24.599999999999994-4.7999999999999545-34.5-13.099999999999909-10.299999999999983-8.800000000000068-20.5-17.800000000000068-30.599999999999994-26.800000000000068-5.699999999999989-5-6.5-11.399999999999977-2.1999999999999886-16.799999999999955 3.6999999999999886-4.600000000000023 9.799999999999983-5.300000000000068 15.699999999999989-1.3999999999999773 9.900000000000006 6.599999999999909 19.80000000000001 13.299999999999955 29.5 20.199999999999932 6.5 4.600000000000023 13.5 7.2000000000000455 21.5 7.2000000000000455 13.300000000000011-0.10000000000002274 26.69999999999999 0 40 0 2.5 0 5.699999999999989 0.2999999999999545 5.600000000000023-3.5-0.10000000000002274-3.300000000000068-2.8000000000000114-3.800000000000068-5.600000000000023-3.800000000000068-8.199999999999989 0-16.399999999999977 0.10000000000002274-24.599999999999994-0.09999999999990905-6.099999999999994-0.20000000000004547-10.200000000000017-4.400000000000091-10.300000000000011-10.100000000000023-0.19999999999998863-5.600000000000023 3.8000000000000114-10.700000000000045 9.800000000000011-10.600000000000023 20.799999999999983 0.20000000000004547 41.599999999999994-1.2999999999999545 62.400000000000006 0.8999999999999773 13.199999999999989 1.3999999999999773 21.80000000000001 8.700000000000045 28.099999999999966 19.600000000000023 7.900000000000034 13.600000000000023 12.800000000000011 28.399999999999977 18.5 43.39999999999998-19.5 1.8000000000000682-38.099999999999966 3.6000000000000227-56.69999999999999 5.300000000000068-2.099999999999966 0.1999999999999318-4 0.599999999999909-5.5-1.7000000000000455-4.599999999999966-7.2000000000000455-12-8.5-19.69999999999999-8.600000000000023z m77.89999999999998 29h-24.5c-10.5 0-21-0.10000000000002274-31.5 0-2.8999999999999773 0-4.399999999999977-0.7999999999999545-4.099999999999966-3.8999999999999773 0.19999999999998863-2.6000000000000227-0.9000000000000341-5.5 3.6999999999999886-5.899999999999977 21.600000000000023-1.8000000000000682 43.19999999999999-3.8999999999999773 64.69999999999999-6.100000000000023 2.900000000000034-0.2999999999999545 2.900000000000034 1.1000000000000227 3.1000000000000227 3.1000000000000227 1.3999999999999773 12.399999999999977 1.099999999999966 12.799999999999955-11.400000000000034 12.799999999999955z m39-183.59999999999997c0-3.1000000000000227 0.6000000000000227-6.199999999999989 1.7000000000000455-9.300000000000011s2.6999999999999886-5.899999999999977 4.899999999999977-8.300000000000011c2.1000000000000227-2.5 4.699999999999989-4.5 7.800000000000011-6s6.599999999999966-2.3000000000000114 10.5-2.3000000000000114c4.599999999999966 0 8.599999999999966 1.1000000000000227 12 3.1000000000000227 3.3000000000000114 2.1000000000000227 5.800000000000011 4.800000000000011 7.5 8.199999999999989l-6.400000000000034 4.300000000000011c-0.6999999999999886-1.6000000000000227-1.5-2.8999999999999773-2.599999999999966-3.8999999999999773-1-1.1000000000000227-2.1000000000000227-1.900000000000034-3.3000000000000114-2.6000000000000227-1.1999999999999886-0.6000000000000227-2.3999999999999773-1.1000000000000227-3.6999999999999886-1.3000000000000114-1.3000000000000114-0.30000000000001137-2.5-0.39999999999997726-3.6999999999999886-0.39999999999997726-2.6000000000000227 0-5 0.5-7 1.599999999999966s-3.7000000000000455 2.5-5.100000000000023 4.400000000000034c-1.3999999999999773 1.8000000000000114-2.3999999999999773 3.8000000000000114-3.1000000000000227 6.099999999999966-0.6999999999999886 2.2000000000000455-1 4.5-1 6.7000000000000455 0 2.5 0.4000000000000341 4.899999999999977 1.2000000000000455 7.199999999999989s1.8999999999999773 4.300000000000011 3.3999999999999773 6.099999999999966c1.5 1.8000000000000114 3.1999999999999886 3.2000000000000455 5.199999999999989 4.2000000000000455 2 1.099999999999966 4.199999999999989 1.599999999999966 6.600000000000023 1.599999999999966 1.1999999999999886 0 2.5-0.19999999999998863 3.8000000000000114-0.5s2.599999999999966-0.8000000000000114 3.7999999999999545-1.5c1.2000000000000455-0.6999999999999886 2.3000000000000114-1.599999999999966 3.3000000000000114-2.6999999999999886s1.900000000000034-2.3999999999999773 2.6000000000000227-3.8999999999999773l6.800000000000011 3.8999999999999773c-0.8000000000000114 1.8999999999999773-2 3.6999999999999886-3.5 5.199999999999989s-3.2000000000000455 2.6999999999999886-5 3.8000000000000114c-1.900000000000034 1-3.8000000000000114 1.8000000000000114-5.900000000000034 2.3000000000000114s-4.199999999999989 0.8000000000000114-6.199999999999989 0.8000000000000114c-3.6000000000000227 0-6.899999999999977-0.8000000000000114-9.899999999999977-2.3000000000000114-3-1.6000000000000227-5.5-3.6000000000000227-7.7000000000000455-6.100000000000023s-3.7999999999999545-5.399999999999977-5-8.599999999999966c-1.3999999999999773-3.2000000000000455-2-6.5-2-9.800000000000011z m81.5 121.30000000000001c-2.099999999999966 5.600000000000023-5.099999999999966 10.399999999999977-9 14.299999999999955-3.8999999999999773 4-8.599999999999966 7-14.099999999999966 9.200000000000045s-11.699999999999989 3.2999999999999545-18.5 3.2999999999999545h-33v-90.79999999999995h33c7.399999999999977 0 13.899999999999977 1.1999999999999886 19.5 3.599999999999966s10.300000000000011 5.600000000000023 14 9.699999999999989c3.8000000000000114 4.100000000000023 6.599999999999966 8.899999999999977 8.399999999999977 14.399999999999977 1.900000000000034 5.5 2.8000000000000114 11.400000000000091 2.8000000000000114 17.600000000000023 0.10000000000002274 6.899999999999977-1 13.200000000000045-3.1000000000000227 18.700000000000045z m4-95c-0.7999999999999545 0.0999999999999659-1.5 0.19999999999998863-2.1999999999999886 0.2999999999999545-0.6999999999999886 0-1.3000000000000114 0.10000000000002274-1.8000000000000114 0.10000000000002274-1.599999999999966-0.10000000000002274-2.6999999999999886-0.5-3.5-1.1999999999999886s-1.2999999999999545-1.6999999999999886-1.5-2.900000000000034l-0.19999999999998863-2.3999999999999773c-1.6999999999999886 2.1999999999999886-3.8000000000000114 4-6.300000000000011 5.199999999999989s-5.199999999999989 1.8000000000000114-8.099999999999966 1.8000000000000114c-1.900000000000034 0-3.6000000000000227-0.30000000000001137-5.199999999999989-0.8999999999999773s-2.900000000000034-1.5-4.100000000000023-2.5c-1.1000000000000227-1.1000000000000227-2-2.3000000000000114-2.6999999999999886-3.8000000000000114s-1-3-1-4.699999999999989c0-1.8000000000000114 0.39999999999997726-3.400000000000034 1.1999999999999886-4.900000000000034s1.8999999999999773-2.6999999999999886 3.3000000000000114-3.8000000000000114c1.3999999999999773-1.099999999999966 3.099999999999966-1.8999999999999773 5.099999999999966-2.5s4.2000000000000455-0.8999999999999773 6.5-0.8999999999999773c1.8000000000000114 0 3.6000000000000227 0.19999999999998863 5.300000000000011 0.5 1.8000000000000114 0.30000000000001137 3.3000000000000114 0.6999999999999886 4.800000000000011 1.3000000000000114v-2.6000000000000227c0-2.8000000000000114-0.8000000000000114-5-2.3999999999999773-6.599999999999966s-3.900000000000034-2.400000000000034-6.900000000000034-2.400000000000034c-2 0-4.099999999999966 0.4000000000000341-6 1.1000000000000227-2 0.8000000000000114-4 1.8000000000000114-6.099999999999966 3.3000000000000114l-2.5-5.100000000000023c4.899999999999977-3.3000000000000114 10-5 15.399999999999977-5 5.300000000000011 0 9.399999999999977 1.3000000000000114 12.300000000000011 4s4.399999999999977 6.5 4.399999999999977 11.600000000000023v13.799999999999955c0 0.9000000000000341 0.19999999999998863 1.6000000000000227 0.5 2s0.9000000000000341 0.6000000000000227 1.8000000000000114 0.7000000000000455v6.5z m27.200000000000045-14c-1.6000000000000227-0.8000000000000114-4.100000000000023-1.5-7.600000000000023-2.400000000000034-2.3999999999999773-0.5999999999999659-4.399999999999977-1.1999999999999886-6.100000000000023-1.8000000000000114s-3.099999999999966-1.2999999999999545-4.199999999999989-2c-1.099999999999966-0.7999999999999545-1.8999999999999773-1.6999999999999886-2.3000000000000114-2.6999999999999886-0.5-1-0.6999999999999886-2.3000000000000114-0.6999999999999886-3.8000000000000114 0-1.8999999999999773 0.4000000000000341-3.6999999999999886 1.1999999999999886-5.199999999999989s1.8000000000000114-2.8000000000000114 3.2000000000000455-3.8000000000000114c1.2999999999999545-1 2.8999999999999773-1.7999999999999545 4.7999999999999545-2.3999999999999773 1.8000000000000114-0.5 3.8000000000000114-0.8000000000000114 5.900000000000034-0.8000000000000114 2.8000000000000114 0 5.5 0.4000000000000341 8 1.3000000000000114 2.599999999999966 0.8999999999999773 4.900000000000034 2.1000000000000227 6.900000000000034 3.6000000000000227l-3.400000000000091 4.899999999999977c-3.699999999999932-2.6999999999999886-7.599999999999966-4.100000000000023-11.699999999999932-4.100000000000023-2 0-3.8000000000000114 0.4000000000000341-5.2000000000000455 1.3000000000000114-1.3999999999999773 0.8000000000000114-2.099999999999966 2.1999999999999886-2.099999999999966 4.100000000000023 0 0.8000000000000114 0.0999999999999659 1.3999999999999773 0.39999999999997726 2 0.30000000000001137 0.5 0.8000000000000114 1 1.400000000000034 1.3999999999999773 0.6999999999999886 0.4000000000000341 1.5 0.6999999999999886 2.599999999999966 1.1000000000000227 1.1000000000000227 0.30000000000001137 2.400000000000034 0.6999999999999886 3.900000000000034 1.099999999999966 2.599999999999966 0.6000000000000227 4.899999999999977 1.3000000000000114 6.7999999999999545 1.900000000000034s3.5 1.3999999999999773 4.7000000000000455 2.1999999999999886c1.1999999999999318 0.8999999999999773 2.199999999999932 1.8999999999999773 2.699999999999932 3 0.6000000000000227 1.1000000000000227 0.900000000000091 2.5 0.900000000000091 4.100000000000023 0 1.7999999999999545-0.40000000000009095 3.3999999999999773-1.1000000000000227 4.899999999999977s-1.8000000000000682 2.6999999999999886-3.1000000000000227 3.6999999999999886-3 1.8000000000000114-4.899999999999977 2.400000000000034c-1.900000000000034 0.5999999999999659-4.100000000000023 0.7999999999999545-6.400000000000034 0.7999999999999545-1.599999999999966 0-3.099999999999966-0.0999999999999659-4.699999999999989-0.39999999999997726-1.6000000000000227-0.19999999999998863-3.1000000000000227-0.6000000000000227-4.699999999999989-1.1000000000000227s-3-1-4.400000000000034-1.6999999999999886c-1.3999999999999773-0.6999999999999886-2.599999999999966-1.3999999999999773-3.6999999999999886-2.1999999999999886l3.400000000000034-5.399999999999977c4.699999999999989 3.2999999999999545 9.299999999999955 4.899999999999977 14 4.899999999999977 2.3999999999999773 0 4.399999999999977-0.5 5.7999999999999545-1.3999999999999773s2.1000000000000227-2.2000000000000455 2.1000000000000227-3.900000000000034c0-1.6999999999999886-0.8000000000000114-2.8000000000000114-2.3999999999999773-3.599999999999966z m50.39999999999998 105.29999999999995c0 1-0.10000000000002274 1.8999999999999773-0.2999999999999545 2.6000000000000227h-51.80000000000007c0.30000000000001137 2.6000000000000227 0.9000000000000341 5 1.900000000000034 7s2.3000000000000114 3.7999999999999545 3.999999999999943 5.2000000000000455c1.6000000000000227 1.5 3.5 2.599999999999909 5.5 3.2999999999999545 2.1000000000000227 0.7999999999999545 4.2000000000000455 1.2000000000000455 6.400000000000091 1.2000000000000455 3.3999999999999773 0 6.599999999999909-0.8000000000000682 9.699999999999932-2.5 3-1.7000000000000455 5.100000000000023-3.900000000000091 6.2000000000000455-6.600000000000023l14.699999999999932 4.100000000000023c-2.5 5.099999999999909-6.399999999999977 9.299999999999955-11.799999999999955 12.599999999999909s-11.899999999999977 4.900000000000091-19.399999999999977 4.900000000000091c-5.399999999999977 0-10.200000000000045-0.900000000000091-14.600000000000023-2.800000000000068-4.300000000000011-1.7999999999999545-8.100000000000023-4.2999999999999545-11.100000000000023-7.5-3.099999999999966-3.199999999999932-5.399999999999977-6.7999999999999545-7.099999999999966-11s-2.5-8.600000000000023-2.5-13.199999999999932c0-4.800000000000068 0.8000000000000114-9.300000000000068 2.3999999999999773-13.5s4-7.900000000000091 7-11.100000000000023c3.1000000000000227-3.2000000000000455 6.800000000000011-5.7000000000000455 11.199999999999989-7.600000000000023s9.300000000000068-2.7999999999999545 14.800000000000068-2.7999999999999545 10.299999999999955 0.8999999999999773 14.599999999999909 2.7999999999999545 8 4.399999999999977 11 7.5c3 3.2000000000000455 5.300000000000068 6.7999999999999545 6.900000000000091 11s2.3999999999999773 8.5 2.3999999999999773 13c0 1.2999999999999545 0 2.2999999999999545-0.10000000000002274 3.3999999999999773z m0.7999999999999545-91.29999999999995h-8v-21.400000000000034c0-3.5-0.599999999999909-6.099999999999966-1.8999999999999773-7.800000000000011s-3.1000000000000227-2.5-5.399999999999977-2.5c-1.1000000000000227 0-2.2000000000000455 0.20000000000004547-3.2999999999999545 0.7000000000000455-1.1000000000000227 0.39999999999997726-2.2000000000000455 1.099999999999966-3.2000000000000455 1.8999999999999773s-1.8999999999999773 1.8000000000000114-2.7000000000000455 2.8999999999999773c-0.7999999999999545 1.1000000000000227-1.3999999999999773 2.3000000000000114-1.7999999999999545 3.6000000000000227v22.69999999999999h-8v-53.39999999999998h8v22.69999999999999c1.5-2.6000000000000227 3.5-4.699999999999989 6-6.100000000000023s5.2999999999999545-2.1999999999999886 8.200000000000045-2.1999999999999886c2.2999999999999545 0 4.2999999999999545 0.4000000000000341 5.7999999999999545 1.3000000000000114 1.6000000000000227 0.8999999999999773 2.7999999999999545 2 3.7000000000000455 3.3999999999999773s1.599999999999909 3.1000000000000227 1.8999999999999773 4.900000000000034c0.39999999999997726 1.8999999999999773 0.5 3.8999999999999773 0.5 6v23.30000000000001z m34.90000000000009 122c-3.1000000000000227 0.6000000000000227-5.800000000000068 0.8999999999999773-8.300000000000068 0.8999999999999773-5.399999999999977 0-9.5-1.3999999999999773-12.5-4.2999999999999545-2.8999999999999773-2.900000000000091-4.399999999999977-6.900000000000091-4.399999999999977-12.200000000000045v-77.89999999999998h17.100000000000023v71.10000000000002c0 5.199999999999932 2.2999999999999545 7.7999999999999545 7 7.7999999999999545 0.8999999999999773 0 2-0.20000000000004547 3.2999999999999545-0.5 1.2000000000000455-0.2999999999999545 2.3999999999999773-0.7000000000000455 3.5-1.2000000000000455l2.300000000000068 13.700000000000045c-2.300000000000068 1.1000000000000227-5 2-8 2.6000000000000227z m1.2999999999999545-122.90000000000003c-2.3999999999999773-1.099999999999966-4.5-2.5-6.2000000000000455-4.300000000000011s-3-3.8999999999999773-3.8999999999999773-6.2999999999999545c-0.8999999999999773-2.400000000000034-1.3999999999999773-4.900000000000034-1.3999999999999773-7.600000000000023 0-2.6000000000000227 0.5-5.199999999999989 1.3999999999999773-7.600000000000023s2.300000000000068-4.5 4-6.2999999999999545c1.7000000000000455-1.8000000000000114 3.800000000000068-3.2000000000000455 6.2000000000000455-4.300000000000011s5.100000000000023-1.6000000000000227 8.100000000000023-1.6000000000000227 5.699999999999932 0.5 8.099999999999909 1.6000000000000227 4.5 2.5 6.2000000000000455 4.300000000000011c1.7000000000000455 1.7999999999999545 3.1000000000000227 3.8999999999999773 4 6.2999999999999545s1.3999999999999773 4.900000000000034 1.3999999999999773 7.600000000000023c0 2.6000000000000227-0.5 5.199999999999989-1.3999999999999773 7.600000000000023s-2.2999999999999545 4.5-4 6.2999999999999545c-1.7000000000000455 1.8000000000000114-3.7999999999999545 3.2000000000000455-6.2000000000000455 4.300000000000011s-5.099999999999909 1.6000000000000227-8.099999999999909 1.6000000000000227c-3.1000000000000227 0-5.800000000000068-0.5-8.200000000000045-1.6000000000000227z m31.299999999999955 122.69999999999999h-17.09999999999991v-67h17.09999999999991v67z m0-76.29999999999995h-17.09999999999991v-17h17.09999999999991v17z m3.5-83.70000000000005h7.300000000000068v7.7000000000000455c1.5-2.6000000000000227 3.6000000000000227-4.600000000000023 6.399999999999977-6.100000000000023s5.7999999999999545-2.1999999999999886 9.200000000000045-2.1999999999999886c2.2999999999999545 0 4.199999999999932 0.39999999999997726 5.699999999999932 1.1999999999999886s2.7000000000000455 2 3.5 3.3999999999999773c0.8999999999999773 1.400000000000034 1.5 3.1000000000000227 1.8000000000000682 5s0.5 3.900000000000034 0.5 6v23.30000000000001h-8v-21.399999999999977c0-3.6000000000000227-0.6000000000000227-6.199999999999989-1.8000000000000682-7.900000000000034-1.1999999999999318-1.599999999999966-2.8999999999999773-2.3999999999999773-5-2.3999999999999773-1.1999999999999318 0-2.3999999999999773 0.19999999999998863-3.5 0.6999999999999886-1.1999999999999318 0.4000000000000341-2.2999999999999545 1.1000000000000227-3.2999999999999545 1.900000000000034s-1.8999999999999773 1.7999999999999545-2.7000000000000455 2.8999999999999773c-0.7999999999999545 1.1000000000000227-1.3999999999999773 2.3000000000000114-1.8999999999999773 3.6000000000000227v22.69999999999999h-8v-38.400000000000034z m48.10000000000002 160h-18.600000000000023l-24.699999999999932-67h17.699999999999932l17 53.10000000000002 17.100000000000023-53.10000000000002h16.100000000000023l-24.600000000000023 67z m99.30000000000007-30.5c0 1-0.10000000000002274 1.8999999999999773-0.3000000000000682 2.6000000000000227h-51.799999999999955c0.2999999999999545 2.6000000000000227 0.8999999999999773 5 1.8999999999999773 7s2.2999999999999545 3.7999999999999545 4 5.2000000000000455c1.6000000000000227 1.5 3.5 2.599999999999909 5.5 3.2999999999999545 2.1000000000000227 0.7999999999999545 4.2000000000000455 1.2000000000000455 6.399999999999977 1.2000000000000455 3.3999999999999773 0 6.600000000000023-0.8000000000000682 9.700000000000045-2.5 3-1.7000000000000455 5.100000000000023-3.900000000000091 6.199999999999932-6.600000000000023l14.700000000000045 4.100000000000023c-2.5 5.099999999999909-6.399999999999977 9.299999999999955-11.799999999999955 12.599999999999909s-11.900000000000091 4.900000000000091-19.40000000000009 4.900000000000091c-5.399999999999977 0-10.199999999999932-0.900000000000091-14.599999999999909-2.800000000000068-4.300000000000068-1.7999999999999545-8.100000000000023-4.2999999999999545-11.100000000000023-7.5-3.1000000000000227-3.199999999999932-5.399999999999977-6.7999999999999545-7.100000000000023-11s-2.5-8.600000000000023-2.5-13.199999999999932c0-4.800000000000068 0.7999999999999545-9.300000000000068 2.3999999999999773-13.5s4-7.900000000000091 7-11.100000000000023c3.1000000000000227-3.2000000000000455 6.800000000000068-5.7000000000000455 11.200000000000045-7.600000000000023s9.299999999999955-2.7999999999999545 14.799999999999955-2.7999999999999545 10.300000000000068 0.8999999999999773 14.600000000000023 2.7999999999999545 8 4.399999999999977 11 7.5c3 3.2000000000000455 5.2999999999999545 6.7999999999999545 6.899999999999977 11s2.3999999999999773 8.5 2.3999999999999773 13c0 1.2999999999999545-0.09999999999990905 2.2999999999999545-0.09999999999990905 3.3999999999999773z m50.5-21.699999999999932c-5.2000000000000455 0.09999999999990905-9.900000000000091 1.099999999999909-13.900000000000091 3-4.099999999999909 1.8999999999999773-7 4.7999999999999545-8.799999999999955 8.599999999999909v40.60000000000002h-17.100000000000023v-67h15.700000000000045v14.300000000000068c2.2999999999999545-4.600000000000023 5.2999999999999545-8.300000000000068 9-11.100000000000023s7.600000000000023-4.2000000000000455 11.699999999999932-4.2000000000000455c0.900000000000091 0 1.6000000000000227 0 2.1000000000000227 0.10000000000002274 0.5 0 0.8999999999999773 0.10000000000002274 1.3000000000000682 0.20000000000004547v15.5z m41.799999999999955 65.59999999999991c-1.7999999999999545 5.100000000000023-4.600000000000023 9.100000000000023-8.600000000000023 11.800000000000068-3.8999999999999773 2.7999999999999545-8.5 4.199999999999932-13.699999999999932 4.199999999999932-3 0-6-0.5-9.100000000000023-1.3999999999999773v-14.799999999999955c1.5 0.39999999999997726 2.8999999999999773 0.6999999999999318 4.199999999999932 0.8999999999999773s2.400000000000091 0.2999999999999545 3.300000000000068 0.2999999999999545c1.1000000000000227 0 2.1000000000000227-0.1999999999999318 2.8999999999999773-0.599999999999909 0.8999999999999773-0.40000000000009095 1.7000000000000455-1.1000000000000227 2.5-2.1000000000000227s1.6000000000000227-2.5 2.3999999999999773-4.300000000000068c0.8000000000000682-1.7999999999999545 1.7000000000000455-4.199999999999932 2.6000000000000227-7.199999999999932l-26.600000000000023-67h17.700000000000045l18.299999999999955 52.19999999999993 16.100000000000023-52.19999999999993h16.100000000000023l-28.100000000000023 80.19999999999993z m-408.3-153.89999999999998c-2.8999999999999773 0-5.199999999999989 0.6000000000000227-7.099999999999966 1.900000000000034-1.8000000000000114 1.1999999999999886-2.7000000000000455 2.8999999999999773-2.7000000000000455 4.899999999999977 0 1.900000000000034 0.7000000000000455 3.5 2.1000000000000227 4.800000000000011s3.1999999999999886 1.8999999999999773 5.399999999999977 1.8999999999999773c1.900000000000034 0 3.8000000000000114-0.39999999999997726 5.5-1.099999999999966s3.1000000000000227-1.6999999999999886 4.100000000000023-3c1-0.9000000000000341 1.5-1.8000000000000114 1.5-2.8000000000000114v-5c-1.3999999999999773-0.5-2.8000000000000114-0.8999999999999773-4.399999999999977-1.1999999999999886-1.400000000000034-0.30000000000001137-2.900000000000034-0.4000000000000341-4.400000000000034-0.4000000000000341z m152.50000000000006 4.7000000000000455c0.599999999999909-1.6000000000000227 0.8999999999999773-3.3000000000000114 0.8999999999999773-5.100000000000023s-0.3000000000000682-3.5-0.8999999999999773-5.100000000000023c-0.6000000000000227-1.599999999999966-1.400000000000091-3-2.400000000000091-4.099999999999966-1-1.1999999999999886-2.199999999999932-2.1000000000000227-3.599999999999909-2.6999999999999886-1.400000000000091-0.7000000000000455-2.900000000000091-1-4.5-1s-3 0.2999999999999545-4.400000000000091 1c-1.3999999999999773 0.6999999999999886-2.599999999999909 1.599999999999966-3.599999999999909 2.7999999999999545s-1.8000000000000682 2.5-2.400000000000091 4.100000000000023c-0.599999999999909 1.6000000000000227-0.8999999999999773 3.3000000000000114-0.8999999999999773 5.100000000000023 0 1.8999999999999773 0.3000000000000682 3.599999999999966 0.8999999999999773 5.099999999999966 0.6000000000000227 1.6000000000000227 1.400000000000091 2.900000000000034 2.400000000000091 4.100000000000023 1 1.099999999999966 2.199999999999932 2 3.599999999999909 2.6999999999999886s2.900000000000091 1 4.5 1 3.1000000000000227-0.30000000000001137 4.5-1 2.6000000000000227-1.6000000000000227 3.6000000000000227-2.6999999999999886c0.8999999999999773-1.1999999999999886 1.7000000000000455-2.6000000000000227 2.300000000000068-4.199999999999989z m-159.00000000000006 68.79999999999995c-2.3000000000000114-2.6000000000000227-5.099999999999966-4.699999999999932-8.5-6.100000000000023-3.3999999999999773-1.5-7.199999999999989-2.199999999999932-11.399999999999977-2.199999999999932h-15.400000000000034v59.89999999999998h15.400000000000034c4.399999999999977 0 8.199999999999989-0.7999999999999545 11.599999999999966-2.2999999999999545s6.2000000000000455-3.6000000000000227 8.400000000000034-6.300000000000068c2.3000000000000114-2.699999999999932 4-5.899999999999977 5.199999999999989-9.5 1.1999999999999886-3.699999999999932 1.8000000000000114-7.600000000000023 1.8000000000000114-11.899999999999977s-0.6000000000000227-8.399999999999977-1.8000000000000114-12c-1.1999999999999886-3.7999999999999545-3-7-5.300000000000011-9.600000000000023z m68.19999999999999 11.300000000000068c-2.2999999999999545 0-4.5 0.39999999999997726-6.5 1.1999999999999318s-3.7999999999999545 1.8999999999999773-5.2999999999999545 3.3999999999999773-2.8000000000000114 3.2000000000000455-3.8000000000000114 5.2000000000000455-1.6000000000000227 4.2999999999999545-1.6999999999999886 6.7999999999999545h34.799999999999955c-0.39999999999997726-5-2.2999999999999545-9.099999999999909-5.600000000000023-12.099999999999909-3.199999999999932-3-7.199999999999932-4.5-11.899999999999977-4.5z m219.20000000000005 0c-2.300000000000068 0-4.5 0.39999999999997726-6.5 1.1999999999999318s-3.800000000000068 1.8999999999999773-5.300000000000068 3.3999999999999773-2.7999999999999545 3.2000000000000455-3.7999999999999545 5.2000000000000455-1.6000000000000227 4.2999999999999545-1.7000000000000455 6.7999999999999545h34.80000000000007c-0.39999999999997726-5-2.300000000000068-9.099999999999909-5.600000000000023-12.099999999999909-3.2000000000000455-3-7.2000000000000455-4.5-11.899999999999977-4.5z m-497.20000000000005-61.400000000000034c15.200000000000045 0.0999999999999659 26.400000000000034-10.800000000000011 26.400000000000034-25.69999999999999 0-15.600000000000023-13.300000000000011-29.100000000000023-29-29.30000000000001-14.800000000000011-0.19999999999998863-26.30000000000001 11.099999999999966-26.400000000000006 25.899999999999977 0 15.5 13.299999999999983 29 29 29.100000000000023z m-15.199999999999989-42.10000000000002c3.9000000000000057 3.8000000000000114 9.100000000000023-6.5 12.200000000000017 1.6000000000000227 1 2.599999999999966-0.9000000000000057 2.6999999999999886-2 3.599999999999966-1.9000000000000057 1.6000000000000227-5.300000000000011 3.3000000000000114-3.8000000000000114 5.800000000000011 1.8000000000000114 3.1000000000000227 4.400000000000006-0.30000000000001137 6.400000000000006-1.1999999999999886 9.699999999999989-4.5 16.30000000000001-0.8000000000000114 15.899999999999977 9.100000000000023 0 1.599999999999966-1.099999999999966 3.3999999999999773 0.30000000000001137 4.699999999999989 1.900000000000034 1.6999999999999886 2.1000000000000227 3.1999999999999886 0.5 5.300000000000011-1.599999999999966 2-2.8000000000000114 1.5-4.599999999999994 0.19999999999998863-2.1999999999999886-1.6000000000000227-3.299999999999983 1-4.599999999999994 1.8999999999999773-2.9000000000000057 2.1000000000000227-4.400000000000006 0.9000000000000341-6.300000000000011-1.5-2.299999999999983-2.8999999999999773 0.20000000000001705-3.3999999999999773 1.8000000000000114-4.599999999999966 1.0999999999999943-0.8000000000000114 2.4000000000000057-1.6000000000000227 3.1999999999999886-2.6000000000000227 1.1000000000000227-1.3000000000000114 2.9000000000000057-2.8000000000000114 1.200000000000017-4.800000000000011-1.5-1.6999999999999886-3-0.39999999999997726-4.400000000000006 0.4000000000000341-3.0999999999999943 1.6999999999999886-6 3.2999999999999545-9.800000000000011 3.099999999999966-4.199999999999989-0.19999999999998863-6.399999999999977-2.5-7.699999999999989-6-1.5-3.6999999999999886 2.0999999999999943-8.099999999999966-1.5999999999999943-11.699999999999989-0.5-0.30000000000001137 2.4000000000000057-4.199999999999989 3.299999999999983-3.3000000000000114z"/>
</svg>