<?xml version="1.0" standalone="no"?>
<svg xmlns="http://www.w3.org/2000/svg" height="1000" width="1000" xmlns:xlink="http://www.w3.org/1999/xlink">
<metadata>IcoFont Icons</metadata>
<title>close-line-squared</title>
<glyph glyph-name="close-line-squared" unicode="&#xeee0;" horiz-adv-x="1000" />
<path d="M62.5 62.5v875h875v-875h-875z m847.9 847.9h-820.8v-820.8h820.8v820.8z m-640.2-147.89999999999998l229.80000000000007-229.60000000000002 229.79999999999995 229.60000000000002 32.700000000000045-32.700000000000045-229.60000000000002-229.79999999999995 229.60000000000002-229.8-32.700000000000045-32.69999999999999-229.79999999999995 229.60000000000002-229.8-229.60000000000002-32.69999999999999 32.69999999999999 229.60000000000002 229.8-229.60000000000002 229.79999999999995 32.69999999999999 32.700000000000045z"/>
</svg>